{
"Login":{
            "_comments": "Login",
            "endpoint": "authentication/login/",
            "method": "POST",
            "request": {
                "login_details": {
                    "username":"email",
                    "password":"password"
                }
            },
            "response": {
                "headers": {
                    "Code": "HTTP_201_CREATED",
                    "Content-Type": "application/json"
                },
                "body": {
                    "result": {"msg":"Login Successfully...!",
                            "token":""}
                }
            },
            "error_codes": [
                {
                    "status": 400,
                    "description": "Bad Request",
                    "message": "The request was invalid <column>"
                },
                {
                    "status": 404,
                    "description": "Not Found",
                    "message": "The requested resource was not found."
                },
                {
                    "status": 500,
                    "description": "Internal Server Error",
                    "message": "The request was not completed due to an internal error on the server side"
                }
            ],
            "success_codes": [
                {
                    "status": 200,
                    "description": "OK",
                    "message": "The request was successfully completed."
                }
            ],
            "view_class_and_model_class": {
                "view_class": [
                    "LoginViewSet"
                ],
                "model_class": [
                    "User"
                ]
            }
        },
"profile_get":{
                    "_comments": "Profile Details get for home page and profilepage",
                    "endpoint": "profile/user-profile-get/id(ex:PG001)/",
                    "method": "GET",
                    "request": {
                        "parameter":"id"
                     },
                    "response": {
                                  "result":{"user_id":"1",
                                            "id":"1",
                                            "employee_profile_image":"ip_address:image",
                                            "employee_name":"Charlie",
                                            "employee_designation":"Manger",
                                            "entity":"entity",
                                            "blood_group":"o+",
                                            "emergency_contact_number":7987645322,
                                            "date_of_joining":"02-05-2020",
                                            "team":"Managing team",
                                            "reporting_manager":"Antony",
                                            "landline_number":97865112
                                            }
                    },
                    "error_codes": [
                        {
                            "status": 400,
                            "description": "Bad Request",
                            "message": "The request was invalid <column>"
                        },
                        {
                            "status": 404,
                            "description": "Not Found",
                            "message": "The requested resource was not found."
                        },
                        {
                            "status": 500,
                            "description": "Internal Server Error",
                            "message": "The request was not completed due to an internal error on the server side"
                        }
                    ],
                    "success_codes": [
                        {
                            "status": 200,
                            "description": "OK",
                            "message": "The request was successfully completed."
                        }
                    ],
                    "view_class_and_model_class": {
                        "view_class": [
                            "ProfileViewSet"
                        ],
                        "model_class": [
                            "User,Profile"
                        ]
                    }
                },
"recent_events_get":{
                "_comments": "recent events get by pagination to show home page and recent events list pages also",
                "endpoint": "daily-activity/recent-events-list-get/?page=1",
                "method": "GET",
                "request": {
                    "parameter":""
                },
                "response": {   
                            "result":{
                                "previous_url":"daily-activity/recent-events-list-get/?page",
                                "next_url":"daily-activity/recent-events-list-get/?page=2",
                                "count":10,
                                "data":[
                                        {"id":1,
                                        "event_image":"ip_address:image",
                                        "event_name":"event",
                                        "event_date":"02-02-2020",
                                        "event_place":"Chennai",
                                        "event_description":"descriptions",
                                        "event_start_time":12,
                                        "event_end_time":1
                                        },
                                        {"id":1,
                                        "event_image":"ip_address:image",
                                        "event_name":"event",
                                        "event_date":"02-02-2020",
                                        "event_place":"Chennai",
                                        "event_description":"descriptions",
                                        "event_start_time":12,
                                        "event_end_time":1
                                        }
                                    ]
                            }       
                },
                "error_codes": [
                    {
                        "status": 400,
                        "description": "Bad Request",
                        "message": "The request was invalid <column>"
                    },
                    {
                        "status": 404,
                        "description": "Not Found",
                        "message": "The requested resource was not found."
                    },
                    {
                        "status": 500,
                        "description": "Internal Server Error",
                        "message": "The request was not completed due to an internal error on the server side"
                    }
                ],
                "success_codes": [
                    {
                        "status": 200,
                        "description": "OK",
                        "message": "The request was successfully completed."
                    }
                ],
                "view_class_and_model_class": {
                    "view_class": [
                        "RecentEventViewSet"
                    ],
                    "model_class": [
                        "RecentEvent"
                    ]
                }
            },
"recent_news_get":{
                "_comments": "recent news get by pagination to show home page and recent news list pages also",
                "endpoint": "daily-activity/recent-news-list-get/?page=1",
                "method": "GET",
                "request": {
                    "parameter":""
                },
                "response": {   
                            "result":{
                                "previous_url":"daily-activity/recent-news-list-get/?page",
                                "next_url":"daily-activity/recent-news-list-get/?page=2",
                                "count":10,
                                "data":[
                                        {"id":1,
                                        "news_image":"ip_address:image",
                                        "news_name":"event",
                                        "news_date":"02-02-2020",
                                        "news_description":"descriptions"
                                        },
                                        {"id":10,
                                        "news_image":"ip_address:image",
                                        "news_name":"event",
                                        "news_date":"02-02-2020",
                                        "news_description":"descriptions"
                                        }
                                    ]
                            }       
                },
                "error_codes": [
                    {
                        "status": 400,
                        "description": "Bad Request",
                        "message": "The request was invalid <column>"
                    },
                    {
                        "status": 404,
                        "description": "Not Found",
                        "message": "The requested resource was not found."
                    },
                    {
                        "status": 500,
                        "description": "Internal Server Error",
                        "message": "The request was not completed due to an internal error on the server side"
                    }
                ],
                "success_codes": [
                    {
                        "status": 200,
                        "description": "OK",
                        "message": "The request was successfully completed."
                    }
                ],
                "view_class_and_model_class": {
                    "view_class": [
                        "RecentNewsViewSet"
                    ],
                    "model_class": [
                        "RecentNews"
                    ]
                }
            },
"customer_stories_get":{
            "_comments": "customer stories get by pagination to show home page and customer stories list pages also",
            "endpoint": "daily-activity/customer-story-list-get/?page=1",
            "method": "GET",
            "request": {
                "parameter":""
            },
            "response": {   
                        "result":{
                            "previous_url":"daily-activity/customer-story-list-get/?page",
                            "next_url":"daily-activity/customer-story-list-get/?page=2",
                            "count":10,
                            "data":[
                                    {"id":1,
                                    "customer_image":"ip_address:image",
                                    "customer_name":"sam",
                                    "customer_occupation":"shop owner",
                                    "customer_location":"descriptions",
                                    "customer_story":"story"
                                    },
                                    {"id":10,
                                    "customer_image":"ip_address:image",
                                    "customer_name":"ram",
                                    "customer_occupation":"shop owner",
                                    "customer_location":"descriptions",
                                    "customer_story":"story"
                                    }
                                ]
                        }       
            },
            "error_codes": [
                {
                    "status": 400,
                    "description": "Bad Request",
                    "message": "The request was invalid <column>"
                },
                {
                    "status": 404,
                    "description": "Not Found",
                    "message": "The requested resource was not found."
                },
                {
                    "status": 500,
                    "description": "Internal Server Error",
                    "message": "The request was not completed due to an internal error on the server side"
                }
            ],
            "success_codes": [
                {
                    "status": 200,
                    "description": "OK",
                    "message": "The request was successfully completed."
                }
            ],
            "view_class_and_model_class": {
                "view_class": [
                    "CustomerStoryViewSet"
                ],
                "model_class": [
                    "CustomerStory"
                ]
            }
        },
"Notification_get":{
                    "_comments": "When admin creating new activity, admin would be notify via notifications",
                    "endpoint": "daily-activity/notification-list-get/?page=1",
                    "method": "GET",
                    "request": {
                        "parameter":""
                    },
                    "response": {   
                                "result":{
                                    "previous_url":"daily-activity/notification-list-get/?page",
                                    "next_url":"daily-activity/notification-list-get/?page=2",
                                    "count":10,
                                    "data":[
                                            {"id":1,
                                            "time":12,
                                            "message":"message"
                                            },
                                            {"id":10,
                                            "time":"ip_address:image",
                                            "message":"message"
                                            }
                                        ]
                                }       
                    },
                    "error_codes": [
                        {
                            "status": 400,
                            "description": "Bad Request",
                            "message": "The request was invalid <column>"
                        },
                        {
                            "status": 404,
                            "description": "Not Found",
                            "message": "The requested resource was not found."
                        },
                        {
                            "status": 500,
                            "description": "Internal Server Error",
                            "message": "The request was not completed due to an internal error on the server side"
                        }
                    ],
                    "success_codes": [
                        {
                            "status": 200,
                            "description": "OK",
                            "message": "The request was successfully completed."
                        }
                    ],
                    "view_class_and_model_class": {
                        "view_class": [
                            "NotificationGetViewset"
                        ],
                        "model_class": [
                            "Notification"
                        ]
                    }
},
"hard_ware_technician_details_get":{
    "_comments": "It support hardware technician details get by them id",
    "endpoint": "it/hardware/technician-details-get/id(exPG001)/",
    "method": "GET",
    "request": {
        "parameter":"id"
    },
    "response": {   
                "result":{
                    "id":1,
                    "profile_picture":"ip_address:image",
                    "name":"name",
                    "designation":"support",
                    "mobile_number":7987989787,
                    "email":"hw@support.com",
                    "landline_number":566
                }       
    },
    "error_codes": [
        {
            "status": 400,
            "description": "Bad Request",
            "message": "The request was invalid <column>"
        },
        {
            "status": 404,
            "description": "Not Found",
            "message": "The requested resource was not found."
        },
        {
            "status": 500,
            "description": "Internal Server Error",
            "message": "The request was not completed due to an internal error on the server side"
        }
    ],
    "success_codes": [
        {
            "status": 200,
            "description": "OK",
            "message": "The request was successfully completed."
        }
    ],
    "view_class_and_model_class": {
        "view_class": [
            "TechnicianViewset"
        ],
        "model_class": [
            "HardwareSupport"
        ]
    }
},
"soft_ware_technician_details_get":{
    "_comments": "It support software technician details get by them id",
    "endpoint": "it/software/technician-details-get/id(exPG001)/",
    "method": "GET",
    "request": {
        "parameter":"id"
    },
    "response": {   
                "result":{
                    "id":1,
                    "profile_picture":"ip_address:image",
                    "name":"name",
                    "designation":"support",
                    "mobile_number":7987989787,
                    "email":"hw@support.com",
                    "landline_number":566
                }       
    },
    "error_codes": [
        {
            "status": 400,
            "description": "Bad Request",
            "message": "The request was invalid <column>"
        },
        {
            "status": 404,
            "description": "Not Found",
            "message": "The requested resource was not found."
        },
        {
            "status": 500,
            "description": "Internal Server Error",
            "message": "The request was not completed due to an internal error on the server side"
        }
    ],
    "success_codes": [
        {
            "status": 200,
            "description": "OK",
            "message": "The request was successfully completed."
        }
    ],
    "view_class_and_model_class": {
        "view_class": [
            "TechnicianViewset"
        ],
        "model_class": [
            "softwareSupport"
        ]
    }
},
"help_desk_details_get":{
    "_comments": "It support helpdesk technician details get by them id",
    "endpoint": "it/helpdesk/technician-details-get/id(exPG001)/",
    "method": "GET",
    "request": {
        "parameter":"id"
    },
    "response": {   
                "result":{
                    "id":1,
                    "profile_picture":"ip_address:image",
                    "name":"name",
                    "designation":"support",
                    "mobile_number":7987989787,
                    "email":"hw@support.com",
                    "landline_number":566
                }       
    },
    "error_codes": [
        {
            "status": 400,
            "description": "Bad Request",
            "message": "The request was invalid <column>"
        },
        {
            "status": 404,
            "description": "Not Found",
            "message": "The requested resource was not found."
        },
        {
            "status": 500,
            "description": "Internal Server Error",
            "message": "The request was not completed due to an internal error on the server side"
        }
    ],
    "success_codes": [
        {
            "status": 200,
            "description": "OK",
            "message": "The request was successfully completed."
        }
    ],
    "view_class_and_model_class": {
        "view_class": [
            "TechnicianViewset"
        ],
        "model_class": [
            "Helpdesk"
        ]
    }
},
"board_memeber_list_get":{
    "_comments": "Board members list get without pagination",
    "endpoint": "team/dvara-trust/board-members/board-members-list-all/",
    "method": "GET",
    "request": {
        "parameter":""
    },
    "response": {   
                "result":[
                            {"id":1,
                            "profile_picture":"ip_address:image",
                            "name":"sam",
                            "designation":"Chariman"
                            },
                            {"id":150,
                            "profile_picture":"ip_address:image",
                            "name":"ram",
                            "designation":"Chariman"
                            }
                        ]
                },       
    "error_codes": [
        {
            "status": 400,
            "description": "Bad Request",
            "message": "The request was invalid <column>"
        },
        {
            "status": 404,
            "description": "Not Found",
            "message": "The requested resource was not found."
        },
        {
            "status": 500,
            "description": "Internal Server Error",
            "message": "The request was not completed due to an internal error on the server side"
        }
    ],
    "success_codes": [
        {
            "status": 200,
            "description": "OK",
            "message": "The request was successfully completed."
        }
    ],
    "view_class_and_model_class": {
        "view_class": [
            "BoardMembersGet"
        ],
        "model_class": [
            "BoardMembers"
        ]
    }
},
"Finance_team_list_get":{
    "_comments": "finance team  members list get without pagination",
    "endpoint": "team/dvara-trust/finance-team/finance-team-list-all/",
    "method": "GET",
    "request": {
        "parameter":""
    },
    "response": {   
                "result":[
                            {"id":1,
                            "profile_picture":"ip_address:image",
                            "name":"sam",
                            "designation":"Chariman"
                            },
                            {"id":150,
                            "profile_picture":"ip_address:image",
                            "name":"ram",
                            "designation":"Chariman"
                            }
                        ]
                },       
    "error_codes": [
        {
            "status": 400,
            "description": "Bad Request",
            "message": "The request was invalid <column>"
        },
        {
            "status": 404,
            "description": "Not Found",
            "message": "The requested resource was not found."
        },
        {
            "status": 500,
            "description": "Internal Server Error",
            "message": "The request was not completed due to an internal error on the server side"
        }
    ],
    "success_codes": [
        {
            "status": 200,
            "description": "OK",
            "message": "The request was successfully completed."
        }
    ],
    "view_class_and_model_class": {
        "view_class": [
            "FinanceTeamGetViewSet"
        ],
        "model_class": [
            "FinanceTeam"
        ]
    }
}
}